<?xml version="1.0" encoding="UTF-8" standalone="no"?>
<!DOCTYPE svg PUBLIC "-//W3C//DTD SVG 1.1//EN"
 "http://www.w3.org/Graphics/SVG/1.1/DTD/svg11.dtd">
<!-- Generated by graphviz version 2.38.0 (20140413.2041)
 -->
<!-- Title: snakemake_dag Pages: 1 -->
<svg width="299pt" height="116pt"
 viewBox="0.00 0.00 299.00 116.00" xmlns="http://www.w3.org/2000/svg" xmlns:xlink="http://www.w3.org/1999/xlink">
<g id="graph0" class="graph" transform="scale(1 1) rotate(0) translate(4 112)">
<title>snakemake_dag</title>
<polygon fill="white" stroke="none" points="-4,4 -4,-112 295,-112 295,4 -4,4"/>
<!-- 0 -->
<g id="node1" class="node"><title>0</title>
<path fill="none" stroke="#afd856" stroke-width="2" stroke-dasharray="5,2" d="M73,-108C73,-108 12,-108 12,-108 6,-108 0,-102 0,-96 0,-96 0,-84 0,-84 0,-78 6,-72 12,-72 12,-72 73,-72 73,-72 79,-72 85,-78 85,-84 85,-84 85,-96 85,-96 85,-102 79,-108 73,-108"/>
<text text-anchor="middle" x="42.5" y="-93" font-family="sans" font-size="10.00">bwa_map</text>
<text text-anchor="middle" x="42.5" y="-82" font-family="sans" font-size="10.00">my_sample: C</text>
</g>
<!-- 5 -->
<g id="node6" class="node"><title>5</title>
<path fill="none" stroke="#d85656" stroke-width="2" stroke-dasharray="5,2" d="M73,-36C73,-36 12,-36 12,-36 6,-36 0,-30 0,-24 0,-24 0,-12 0,-12 0,-6 6,-0 12,-0 12,-0 73,-0 73,-0 79,-0 85,-6 85,-12 85,-12 85,-24 85,-24 85,-30 79,-36 73,-36"/>
<text text-anchor="middle" x="42.5" y="-15.5" font-family="sans" font-size="10.00">samtools_sort</text>
</g>
<!-- 0&#45;&gt;5 -->
<g id="edge3" class="edge"><title>0&#45;&gt;5</title>
<path fill="none" stroke="grey" stroke-width="2" d="M42.5,-71.6966C42.5,-63.9827 42.5,-54.7125 42.5,-46.1124"/>
<polygon fill="grey" stroke="grey" stroke-width="2" points="46.0001,-46.1043 42.5,-36.1043 39.0001,-46.1044 46.0001,-46.1043"/>
</g>
<!-- 1 -->
<g id="node2" class="node"><title>1</title>
<path fill="none" stroke="#d85656" stroke-width="2" stroke-dasharray="5,2" d="M176,-36C176,-36 115,-36 115,-36 109,-36 103,-30 103,-24 103,-24 103,-12 103,-12 103,-6 109,-0 115,-0 115,-0 176,-0 176,-0 182,-0 188,-6 188,-12 188,-12 188,-24 188,-24 188,-30 182,-36 176,-36"/>
<text text-anchor="middle" x="145.5" y="-15.5" font-family="sans" font-size="10.00">samtools_sort</text>
</g>
<!-- 2 -->
<g id="node3" class="node"><title>2</title>
<path fill="none" stroke="#d85656" stroke-width="2" stroke-dasharray="5,2" d="M279,-36C279,-36 218,-36 218,-36 212,-36 206,-30 206,-24 206,-24 206,-12 206,-12 206,-6 212,-0 218,-0 218,-0 279,-0 279,-0 285,-0 291,-6 291,-12 291,-12 291,-24 291,-24 291,-30 285,-36 279,-36"/>
<text text-anchor="middle" x="248.5" y="-15.5" font-family="sans" font-size="10.00">samtools_sort</text>
</g>
<!-- 3 -->
<g id="node4" class="node"><title>3</title>
<path fill="none" stroke="#afd856" stroke-width="2" stroke-dasharray="5,2" d="M279,-108C279,-108 218,-108 218,-108 212,-108 206,-102 206,-96 206,-96 206,-84 206,-84 206,-78 212,-72 218,-72 218,-72 279,-72 279,-72 285,-72 291,-78 291,-84 291,-84 291,-96 291,-96 291,-102 285,-108 279,-108"/>
<text text-anchor="middle" x="248.5" y="-93" font-family="sans" font-size="10.00">bwa_map</text>
<text text-anchor="middle" x="248.5" y="-82" font-family="sans" font-size="10.00">my_sample: B</text>
</g>
<!-- 3&#45;&gt;2 -->
<g id="edge2" class="edge"><title>3&#45;&gt;2</title>
<path fill="none" stroke="grey" stroke-width="2" d="M248.5,-71.6966C248.5,-63.9827 248.5,-54.7125 248.5,-46.1124"/>
<polygon fill="grey" stroke="grey" stroke-width="2" points="252,-46.1043 248.5,-36.1043 245,-46.1044 252,-46.1043"/>
</g>
<!-- 4 -->
<g id="node5" class="node"><title>4</title>
<path fill="none" stroke="#afd856" stroke-width="2" stroke-dasharray="5,2" d="M176,-108C176,-108 115,-108 115,-108 109,-108 103,-102 103,-96 103,-96 103,-84 103,-84 103,-78 109,-72 115,-72 115,-72 176,-72 176,-72 182,-72 188,-78 188,-84 188,-84 188,-96 188,-96 188,-102 182,-108 176,-108"/>
<text text-anchor="middle" x="145.5" y="-93" font-family="sans" font-size="10.00">bwa_map</text>
<text text-anchor="middle" x="145.5" y="-82" font-family="sans" font-size="10.00">my_sample: A</text>
</g>
<!-- 4&#45;&gt;1 -->
<g id="edge1" class="edge"><title>4&#45;&gt;1</title>
<path fill="none" stroke="grey" stroke-width="2" d="M145.5,-71.6966C145.5,-63.9827 145.5,-54.7125 145.5,-46.1124"/>
<polygon fill="grey" stroke="grey" stroke-width="2" points="149,-46.1043 145.5,-36.1043 142,-46.1044 149,-46.1043"/>
</g>
</g>
</svg>
