Building DAG of jobs...
Using shell: /bin/bash
Provided cores: 1
Rules claiming more threads will be scaled down.
Job counts:
	count	jobs
	1	clean
	1

rule clean:
    jobid: 0

Error in rule clean:
    jobid: 0

RuleException:
CalledProcessError in line 14 of /homes/ccpeters/Repositories/Personal/snakemakerepoth11/tutorial2/Snakefile:
Command ' set -euo pipefail;  rm mapped_reads ' returned non-zero exit status 1
  File "/homes/ccpeters/Repositories/Personal/snakemakerepoth11/tutorial2/Snakefile", line 14, in __rule_clean
  File "/usr/lib/python3.5/concurrent/futures/thread.py", line 55, in run
Will exit after finishing currently running jobs.
Shutting down, this might take some time.
Exiting because a job execution failed. Look above for error message
Complete log: /homes/ccpeters/Repositories/Personal/snakemakerepoth11/tutorial2/.snakemake/log/2018-02-16T150109.671643.snakemake.log
