Building DAG of jobs...
Using shell: /bin/bash
Job counts:
	count	jobs
	1	concat_index_fastas
	1
Complete log: /homes/ccpeters/Repositories/Personal/snakemakerepoth11/Final/.snakemake/log/2018-04-12T025401.986656.snakemake.log
