Building DAG of jobs...
Using shell: /bin/bash
Provided cores: 1
Rules claiming more threads will be scaled down.
Job counts:
	count	jobs
	1	all
	1

rule all:
    input: Sample1.txt, Sample2.txt, Sample3.txt
    output: test.txt
    jobid: 0

Finished job 0.
1 of 1 steps (100%) done
Shutting down, this might take some time.
Complete log: /homes/ccpeters/th11_work/DataProcessing/aantk/les1/snakemake-test/.snakemake/log/2018-02-13T135439.800228.snakemake.log
