Building DAG of jobs...
Using shell: /bin/bash
Job counts:
	count	jobs
	1	homer_scrna_star_brain
	1
Complete log: /homes/ccpeters/Repositories/Personal/snakemakerepoth11/Final/.snakemake/log/2018-04-09T031326.370191.snakemake.log
