Building DAG of jobs...
Using shell: /usr/bin/bash
Provided cores: 40
Rules claiming more threads will be scaled down.
Job counts:
	count	jobs
	1	clean_indeces
	1

rule clean_indeces:
    jobid: 0

Finished job 0.
1 of 1 steps (100%) done
Complete log: /homes/ccpeters/Repositories/Personal/snakemakerepoth11/Final/.snakemake/log/2018-04-04T122352.380566.snakemake.log
