Building DAG of jobs...
Using shell: /bin/bash
Job counts:
	count	jobs
	1	analyse_brain
	1
Touching output file /data/storix2/scsa/Processed_data/Casper/emptyfiles/brain_analyse_done.txt.
Complete log: /homes/ccpeters/Repositories/Personal/snakemakerepoth11/Final/.snakemake/log/2018-04-09T032225.076503.snakemake.log
